{
  "notes": [
    {
      "id": "1",
      "title": "Complete Project Proposal",
      "content": "Draft and finalize the project proposal for the upcoming client meeting.",
      "category": "Work"
    },
    {
      "id": "4",
      "title": "Fitness Morning",
      "content": "Complete a 30-minute workout session yesterday.",
      "category": "Hobby"
    },
    {
      "id": "5",
      "title": "Read Chapter 6",
      "content": "Read and summarize Chapter 6 of the book for the book club meeting.",
      "category": "Work"
    },
    {
      "id": "6",
      "title": "Plan Weekend Getaway",
      "content": "Research and plan a weekend getaway for some relaxation and fun.",
      "category": "Personal"
    },
    {
      "id": "7",
      "title": "Write Blog Post",
      "content": "Start drafting the blog post on the latest industry trends.",
      "category": "Work"
    },
    {
      "id": "8",
      "title": "Practice Guitar",
      "content": "Dedicate 15 minutes to practice guitar and learn a new chord progression.",
      "category": "Hobby"
    }
  ]
}